{
  "$id": "https://lintian.debian.org/schema/json/job/task.json",
  "$schema": "http://json-schema.org/draft-07/schema#",
  "description": "Task specification and output",
  "properties": {
    "creation_time": {
      "description": "UTC Timestamp for task creation",
      "type": "string"
    },
    "inputs": {
      "description": "File paths to be passed to tool",
      "items": {
        "type": "string"
      },
      "type": "array"
    },
    "name": {
      "description": "Task identifier",
      "type": "string"
    },
    "port": {
      "description": "Debian port for tool invocation",
      "type": "string"
    },
    "product": {
      "$ref": "/schema/json/job/product.json"
    },
    "release": {
      "description": "Debian release for tool invocation",
      "type": "string"
    },
    "source_name": {
      "description": "Name of source to be analyzed",
      "type": "string"
    },
    "source_version": {
      "description": "Version of source to be analyzed",
      "type": "string"
    },
    "tool": {
      "$ref": "/schema/json/job/tool.json"
    },
    "tool_name": {
      "description": "Name of tool requested",
      "type": "string"
    }
  },
  "required": [
    "creation_time",
    "inputs",
    "name",
    "port",
    "release",
    "source_name",
    "source_version",
    "tool_name"
  ],
  "title": "Processing Task",
  "type": "object"
}
